%YAML 1.1
%TAG !u! tag:unity3d.com,2011:
--- !u!78 &1
TagManager:
  serializedVersion: 2
  tags: []
  layers:
  - Default
  - TransparentFX
  - Ignore Raycast
  - 
  - Water
  - UI
  - 
  - 
  - Ground
  - Climbing
  - Player
  - Background
  - Enemy
  - Hazards
  - Interactables
  - 
  - 
  - 
  - 
  - 
  - 
  - 
  - 
  - 
  - 
  - 
  - 
  - 
  - 
  - 
  - 
  - 
  m_SortingLayers:
  - name: Default
    uniqueID: 0
    locked: 0
  - name: Background
    uniqueID: 2747084877
    locked: 0
  - name: Climbing
    uniqueID: 4057711789
    locked: 0
  - name: Enemy
    uniqueID: 1453421617
    locked: 0
  - name: Hazards
    uniqueID: 2264467487
    locked: 0
  - name: Interactables
    uniqueID: 1474319205
    locked: 0
  - name: Player
    uniqueID: 284233709
    locked: 0
  - name: Foreground
    uniqueID: 758216205
    locked: 0
